^D:\CODE\C++\SDL GAME\SDL RPG GAME\SDL RPG GAME\DEBUG\CAMERA.OBJ|D:\CODE\C++\SDL GAME\SDL RPG GAME\SDL RPG GAME\DEBUG\CHARACTERCONTROLLER.OBJ|D:\CODE\C++\SDL GAME\SDL RPG GAME\SDL RPG GAME\DEBUG\CONSTANTS.OBJ|D:\CODE\C++\SDL GAME\SDL RPG GAME\SDL RPG GAME\DEBUG\DEBUG.OBJ|D:\CODE\C++\SDL GAME\SDL RPG GAME\SDL RPG GAME\DEBUG\ENGINE.OBJ|D:\CODE\C++\SDL GAME\SDL RPG GAME\SDL RPG GAME\DEBUG\ENTITY.OBJ|D:\CODE\C++\SDL GAME\SDL RPG GAME\SDL RPG GAME\DEBUG\EXPLORINGMAP.OBJ|D:\CODE\C++\SDL GAME\SDL RPG GAME\SDL RPG GAME\DEBUG\IINPUTHANDLER.OBJ|D:\CODE\C++\SDL GAME\SDL RPG GAME\SDL RPG GAME\DEBUG\INPUTCONTROLLER.OBJ|D:\CODE\C++\SDL GAME\SDL RPG GAME\SDL RPG GAME\DEBUG\KEYBOARDCHARACTERCONTROLLER.OBJ|D:\CODE\C++\SDL GAME\SDL RPG GAME\SDL RPG GAME\DEBUG\MAIN.OBJ|D:\CODE\C++\SDL GAME\SDL RPG GAME\SDL RPG GAME\DEBUG\RENDERER.OBJ|D:\CODE\C++\SDL GAME\SDL RPG GAME\SDL RPG GAME\DEBUG\RENDERLIST.OBJ|D:\CODE\C++\SDL GAME\SDL RPG GAME\SDL RPG GAME\DEBUG\SPRITE.OBJ|D:\CODE\C++\SDL GAME\SDL RPG GAME\SDL RPG GAME\DEBUG\SPRITESHEET.OBJ|D:\CODE\C++\SDL GAME\SDL RPG GAME\SDL RPG GAME\DEBUG\STATE.OBJ|D:\CODE\C++\SDL GAME\SDL RPG GAME\SDL RPG GAME\DEBUG\STATEMACHINE.OBJ|D:\CODE\C++\SDL GAME\SDL RPG GAME\SDL RPG GAME\DEBUG\TEXTURELOADER.OBJ|D:\CODE\C++\SDL GAME\SDL RPG GAME\SDL RPG GAME\DEBUG\TILEEDMAPCSVLOADER.OBJ|D:\CODE\C++\SDL GAME\SDL RPG GAME\SDL RPG GAME\DEBUG\TILEEDMAPJSONLOADER.OBJ|D:\CODE\C++\SDL GAME\SDL RPG GAME\SDL RPG GAME\DEBUG\TILEEDXMLLOADER.OBJ|D:\CODE\C++\SDL GAME\SDL RPG GAME\SDL RPG GAME\DEBUG\TILEMAP.OBJ|D:\CODE\C++\SDL GAME\SDL RPG GAME\SDL RPG GAME\DEBUG\TINYXML2.OBJ|D:\CODE\C++\SDL GAME\SDL RPG GAME\SDL RPG GAME\DEBUG\WINDOW.OBJ
C:\WINDOWS\GLOBALIZATION\SORTING\SORTDEFAULT.NLS
D:\CODE\C++\SDL GAME\SDL RPG GAME\SDL2-2.0.8\LIB\X86\SDL2.LIB
D:\CODE\C++\SDL GAME\SDL RPG GAME\SDL2-2.0.8\LIB\X86\SDL2MAIN.LIB
D:\CODE\C++\SDL GAME\SDL RPG GAME\SDL2_IMAGE-2.0.3\LIB\X86\SDL2_IMAGE.LIB
C:\PROGRAM FILES (X86)\WINDOWS KITS\8.1\LIB\WINV6.3\UM\X86\KERNEL32.LIB
C:\PROGRAM FILES (X86)\WINDOWS KITS\8.1\LIB\WINV6.3\UM\X86\USER32.LIB
C:\PROGRAM FILES (X86)\WINDOWS KITS\8.1\LIB\WINV6.3\UM\X86\GDI32.LIB
C:\PROGRAM FILES (X86)\WINDOWS KITS\8.1\LIB\WINV6.3\UM\X86\WINSPOOL.LIB
C:\PROGRAM FILES (X86)\WINDOWS KITS\8.1\LIB\WINV6.3\UM\X86\COMDLG32.LIB
C:\PROGRAM FILES (X86)\WINDOWS KITS\8.1\LIB\WINV6.3\UM\X86\ADVAPI32.LIB
C:\PROGRAM FILES (X86)\WINDOWS KITS\8.1\LIB\WINV6.3\UM\X86\SHELL32.LIB
C:\PROGRAM FILES (X86)\WINDOWS KITS\8.1\LIB\WINV6.3\UM\X86\OLE32.LIB
C:\PROGRAM FILES (X86)\WINDOWS KITS\8.1\LIB\WINV6.3\UM\X86\OLEAUT32.LIB
C:\PROGRAM FILES (X86)\WINDOWS KITS\8.1\LIB\WINV6.3\UM\X86\UUID.LIB
C:\PROGRAM FILES (X86)\WINDOWS KITS\8.1\LIB\WINV6.3\UM\X86\ODBC32.LIB
C:\PROGRAM FILES (X86)\WINDOWS KITS\8.1\LIB\WINV6.3\UM\X86\ODBCCP32.LIB
D:\CODE\C++\SDL GAME\SDL RPG GAME\SDL RPG GAME\DEBUG\DEBUG.OBJ
D:\CODE\C++\SDL GAME\SDL RPG GAME\SDL RPG GAME\DEBUG\SPRITESHEET.OBJ
D:\CODE\C++\SDL GAME\SDL RPG GAME\SDL RPG GAME\DEBUG\TINYXML2.OBJ
D:\CODE\C++\SDL GAME\SDL RPG GAME\SDL RPG GAME\DEBUG\CHARACTERCONTROLLER.OBJ
D:\CODE\C++\SDL GAME\SDL RPG GAME\SDL RPG GAME\DEBUG\KEYBOARDCHARACTERCONTROLLER.OBJ
D:\CODE\C++\SDL GAME\SDL RPG GAME\SDL RPG GAME\DEBUG\ENTITY.OBJ
D:\CODE\C++\SDL GAME\SDL RPG GAME\SDL RPG GAME\DEBUG\IINPUTHANDLER.OBJ
D:\CODE\C++\SDL GAME\SDL RPG GAME\SDL RPG GAME\DEBUG\INPUTCONTROLLER.OBJ
D:\CODE\C++\SDL GAME\SDL RPG GAME\SDL RPG GAME\DEBUG\CAMERA.OBJ
D:\CODE\C++\SDL GAME\SDL RPG GAME\SDL RPG GAME\DEBUG\TILEEDMAPCSVLOADER.OBJ
D:\CODE\C++\SDL GAME\SDL RPG GAME\SDL RPG GAME\DEBUG\TILEEDMAPJSONLOADER.OBJ
D:\CODE\C++\SDL GAME\SDL RPG GAME\SDL RPG GAME\DEBUG\TILEEDXMLLOADER.OBJ
D:\CODE\C++\SDL GAME\SDL RPG GAME\SDL RPG GAME\DEBUG\TILEMAP.OBJ
D:\CODE\C++\SDL GAME\SDL RPG GAME\SDL RPG GAME\DEBUG\MAIN.OBJ
D:\CODE\C++\SDL GAME\SDL RPG GAME\SDL RPG GAME\DEBUG\ENGINE.OBJ
D:\CODE\C++\SDL GAME\SDL RPG GAME\SDL RPG GAME\DEBUG\SPRITE.OBJ
D:\CODE\C++\SDL GAME\SDL RPG GAME\SDL RPG GAME\DEBUG\TEXTURELOADER.OBJ
D:\CODE\C++\SDL GAME\SDL RPG GAME\SDL RPG GAME\DEBUG\STATE.OBJ
D:\CODE\C++\SDL GAME\SDL RPG GAME\SDL RPG GAME\DEBUG\STATEMACHINE.OBJ
D:\CODE\C++\SDL GAME\SDL RPG GAME\SDL RPG GAME\DEBUG\CONSTANTS.OBJ
D:\CODE\C++\SDL GAME\SDL RPG GAME\SDL RPG GAME\DEBUG\EXPLORINGMAP.OBJ
D:\CODE\C++\SDL GAME\SDL RPG GAME\SDL RPG GAME\DEBUG\RENDERER.OBJ
D:\CODE\C++\SDL GAME\SDL RPG GAME\SDL RPG GAME\DEBUG\RENDERLIST.OBJ
D:\CODE\C++\SDL GAME\SDL RPG GAME\SDL RPG GAME\DEBUG\WINDOW.OBJ
C:\WINDOWS\SYSTEM32\TZRES.DLL
C:\PROGRAM FILES (X86)\MICROSOFT VISUAL STUDIO 14.0\VC\LIB\MSVCRTD.LIB
C:\PROGRAM FILES (X86)\MICROSOFT VISUAL STUDIO 14.0\VC\LIB\OLDNAMES.LIB
C:\PROGRAM FILES (X86)\MICROSOFT VISUAL STUDIO 14.0\VC\LIB\MSVCPRTD.LIB
C:\PROGRAM FILES (X86)\MICROSOFT VISUAL STUDIO 14.0\VC\LIB\VCRUNTIMED.LIB
C:\PROGRAM FILES (X86)\WINDOWS KITS\10\LIB\10.0.10240.0\UCRT\X86\UCRTD.LIB
